<svg xmlns="http://www.w3.org/2000/svg" xmlns:xlink="http://www.w3.org/1999/xlink" preserveAspectRatio="xMidYMid" width="125" height="125" viewBox="0 0 125 125">
  <defs>
    <style>
      .cls-1 {
        fill: #000;
        stroke: #702d8c;
        stroke-linejoin: round;
        stroke-width: 5px;
        fill-opacity: 0;
      }

      .cls-2 {
        fill: #702d8c;
        fill-rule: evenodd;
      }
    </style>
  </defs>
  <g>
    <circle cx="62.5" cy="62.5" r="57.5" class="cls-1"/>
    <path d="M75.061,66.532 C74.716,65.570 74.167,64.556 73.396,63.471 C72.996,62.944 72.566,62.408 72.105,61.863 C71.607,61.272 71.025,60.661 70.408,60.085 C69.792,59.467 69.149,58.885 68.503,58.354 C67.973,57.919 67.478,57.521 66.884,57.044 C65.795,56.159 64.892,55.386 64.171,54.727 C63.539,54.147 63.030,53.602 62.626,53.067 C62.219,52.557 61.955,52.125 61.731,51.556 C61.635,51.363 61.593,51.164 61.593,50.910 C61.593,50.704 61.630,50.518 61.703,50.357 C61.850,50.041 62.055,49.810 62.382,49.599 C63.007,49.189 63.666,49.184 64.200,49.400 C64.576,49.551 64.882,49.774 65.020,49.935 C65.246,50.282 65.347,50.582 65.347,50.910 C65.347,52.310 65.902,53.574 66.957,54.563 C68.975,56.455 72.252,56.460 74.280,54.560 C75.329,53.573 75.885,52.310 75.885,50.910 C75.885,49.268 75.564,47.691 74.897,46.150 C73.868,44.042 72.353,42.329 70.385,41.052 C68.800,40.036 67.048,39.415 65.165,39.178 L65.165,35.688 C65.165,34.756 64.420,34.000 63.498,34.000 C62.577,34.000 61.832,34.756 61.832,35.688 L61.832,39.170 C60.715,39.304 59.659,39.569 58.699,39.975 C56.544,40.811 54.690,42.220 53.126,44.247 C52.476,45.200 51.959,46.242 51.588,47.337 C51.199,48.469 51.002,49.671 51.002,50.910 C51.002,52.437 51.332,54.009 51.988,55.592 C52.751,57.411 53.985,59.188 55.600,60.812 C56.301,61.592 57.074,62.340 57.904,63.044 L60.137,64.921 C61.269,65.816 62.141,66.563 62.810,67.209 C63.451,67.826 64.011,68.424 64.408,68.909 C64.783,69.389 65.043,69.826 65.261,70.379 C65.357,70.574 65.403,70.790 65.403,71.038 C65.403,71.272 65.362,71.478 65.305,71.613 C65.157,71.926 64.927,72.183 64.622,72.395 C64.312,72.595 63.984,72.685 63.555,72.685 C63.257,72.685 62.973,72.636 62.777,72.565 C62.424,72.416 62.125,72.187 61.973,72.005 C61.682,71.562 61.648,71.272 61.648,71.092 C61.648,69.658 61.093,68.375 60.038,67.383 C58.020,65.492 54.745,65.486 52.706,67.396 C51.663,68.388 51.111,69.666 51.111,71.092 C51.111,72.707 51.431,74.263 52.079,75.756 C53.070,77.887 54.597,79.618 56.601,80.888 C58.214,81.931 59.968,82.571 61.832,82.817 L61.832,86.312 C61.832,87.245 62.577,88.000 63.498,88.000 C64.420,88.000 65.165,87.245 65.165,86.312 L65.165,82.818 C66.228,82.678 67.299,82.413 68.386,81.991 C70.595,81.040 72.405,79.621 73.767,77.770 C75.248,75.747 75.998,73.500 75.998,71.092 C75.998,69.568 75.673,68.008 75.061,66.532 ZM71.091,75.758 C70.089,77.118 68.739,78.171 67.138,78.862 C64.037,80.063 60.942,79.693 58.385,78.036 C56.916,77.106 55.810,75.855 55.113,74.358 C54.669,73.335 54.444,72.236 54.444,71.092 C54.444,70.595 54.612,70.214 54.980,69.865 C55.380,69.490 55.826,69.314 56.381,69.314 C56.934,69.314 57.377,69.488 57.773,69.857 C58.147,70.211 58.315,70.592 58.315,71.092 C58.315,72.046 58.611,72.982 59.284,73.994 C59.877,74.743 60.621,75.311 61.561,75.706 C63.160,76.301 65.001,76.157 66.462,75.209 C67.286,74.639 67.908,73.922 68.336,73.020 C68.601,72.402 68.736,71.736 68.736,71.038 C68.736,70.272 68.573,69.549 68.311,69.024 C68.028,68.286 67.606,67.564 67.001,66.788 C66.492,66.163 65.853,65.482 65.108,64.764 C64.361,64.044 63.407,63.226 62.229,62.295 L60.038,60.452 C59.329,59.850 58.663,59.206 58.007,58.480 C56.643,57.104 55.650,55.690 55.058,54.281 C54.579,53.121 54.335,51.987 54.335,50.910 C54.335,50.049 54.470,49.220 54.739,48.439 C55.012,47.629 55.393,46.862 55.810,46.245 C56.936,44.790 58.308,43.741 59.939,43.108 C60.987,42.664 62.165,42.438 63.440,42.438 C65.346,42.438 67.084,42.931 68.596,43.900 C70.038,44.835 71.151,46.095 71.876,47.573 C72.323,48.613 72.551,49.735 72.551,50.910 C72.551,51.373 72.385,51.736 72.014,52.084 C71.212,52.835 70.011,52.829 69.223,52.088 C68.848,51.736 68.681,51.373 68.681,50.910 C68.681,49.922 68.384,48.969 67.707,47.946 C67.113,47.199 66.348,46.633 65.432,46.264 C63.910,45.649 62.076,45.780 60.583,46.758 C59.734,47.303 59.094,48.035 58.679,48.937 C58.401,49.549 58.259,50.212 58.259,50.910 C58.259,51.683 58.423,52.409 58.684,52.916 C58.969,53.666 59.412,54.411 60.007,55.153 C60.508,55.820 61.137,56.497 61.933,57.230 C62.698,57.929 63.650,58.745 64.859,59.726 C65.396,60.156 65.881,60.547 66.404,60.975 C66.967,61.438 67.527,61.946 68.105,62.523 C68.663,63.047 69.154,63.561 69.569,64.054 C69.994,64.557 70.388,65.047 70.722,65.485 C71.282,66.273 71.687,67.013 71.956,67.759 C72.426,68.896 72.665,70.018 72.665,71.092 C72.665,72.760 72.135,74.331 71.091,75.758 Z" class="cls-2"/>
  </g>
</svg>
